{"successful":true,"result":{"currentPage":1,"prePage":0,"nextPage":2,"records":[{"num":1,"key":"42"},{"num":2,"key":"22"},{"num":3,"key":"49"},{"num":4,"key":"30"},{"num":5,"key":"89"},{"num":6,"key":"43"},{"num":7,"key":"90"},{"num":8,"key":"72"},{"num":9,"key":"66"},{"num":10,"key":"88"}],"pageSize":10,"totalPage":10,"totalRecords":96},"errorCode":null,"errMsg":null}